[FBX_META_DATA]
MeshCount: 1

[MESH_DATA]
VertexCount: 388
IndexCount: 978
BoneCount: 0
AnimationClips: 1

[VERTEX_DATA]
Position: -1.28043 -70.664 0
Normal: -0 0 1
UV: 0.509267 1

Position: -13.4335 -70.664 0
Normal: -0 0 1
UV: 0.597221 1

Position: -13.4335 -27.7403 0
Normal: -0 0 1
UV: 0.597221 0.696283

Position: -1.28043 -27.7403 0
Normal: -0 0 1
UV: 0.509267 0.696283

Position: -13.4335 0 0
Normal: -0 -0.144694 0.989477
UV: 0.597221 0.5

Position: -1.28043 0 0
Normal: -0 -0.144694 0.989477
UV: 0.509267 0.5

Position: -13.4335 23.8496 7.1276
Normal: -0 -0.348458 0.937325
UV: 0.597221 0.331246

Position: -1.28043 23.8496 7.1276
Normal: -0 -0.348458 0.937325
UV: 0.509267 0.331246

Position: -13.4335 45.0448 16.6295
Normal: -0 -0.628635 0.7777
UV: 0.597221 0.181274

Position: -1.28043 45.0448 16.6295
Normal: -3.77373e-008 -0.631007 0.775777
UV: 0.509267 0.181274

Position: -12.8422 64.3413 43.1188
Normal: -2.50075e-007 -0.808278 0.5888
UV: 0.592941 0.00592834

Position: -0.68914 64.3412 43.1188
Normal: -3.22601e-007 -0.808278 0.5888
UV: 0.504987 0.0059284

Position: -16.5082 -69.7651 -4.46921
Normal: 0.96527 0.234887 0.114373
UV: 0.226662 1

Position: -17.5706 -69.7651 4.4967
Normal: 0.96527 0.234887 0.114373
UV: 0.314763 1

Position: -20.795 -56.3284 4.11465
Normal: 0.870426 0.481375 0.103135
UV: 0.314763 0.833333

Position: -19.7326 -56.3284 -4.85127
Normal: 0.870426 0.481376 0.103135
UV: 0.226662 0.833333

Position: -31.2165 -45.448 2.87982
Normal: 0.550061 0.832578 0.0651757
UV: 0.314763 0.666667

Position: -30.1542 -45.448 -6.0861
Normal: 0.550061 0.832578 0.0651757
UV: 0.226662 0.666667

Position: -46.6454 -39.4102 1.05168
Normal: 0.194358 0.98066 0.0230291
UV: 0.314763 0.5

Position: -45.583 -39.4102 -7.91423
Normal: 0.194358 0.98066 0.0230291
UV: 0.226662 0.5

Position: -61.2749 -39.0665 -0.681744
Normal: -0.147146 0.988961 -0.0174351
UV: 0.314763 0.358486

Position: -60.2125 -39.0665 -9.64766
Normal: -0.147146 0.988961 -0.0174351
UV: 0.226662 0.358486

Position: -77.1247 -44.3694 -2.55975
Normal: -0.503681 0.861826 -0.0596803
UV: 0.314763 0.191819

Position: -76.0623 -44.3694 -11.5257
Normal: -0.503681 0.861826 -0.0596803
UV: 0.226662 0.191819

Position: -88.3351 -54.7416 -3.88805
Normal: -0.671876 0.736372 -0.0796094
UV: 0.314763 0.0251524

Position: -87.2728 -54.7416 -12.854
Normal: -0.671876 0.736372 -0.0796094
UV: 0.226662 0.0251524

Position: -12.089 -69.9659 -7.07618
Normal: 0.842921 0.366131 0.394249
UV: 0.360578 1

Position: -17.0329 -69.9659 3.49409
Normal: 0.842921 0.366131 0.394249
UV: 0.458921 1

Position: -26.7594 -42.6746 -1.05517
Normal: 0.718078 0.609561 0.335857
UV: 0.458921 0.696283

Position: -21.8155 -42.6746 -11.6254
Normal: 0.718078 0.609561 0.335857
UV: 0.360578 0.696283

Position: -40.0884 -31.841 -7.2894
Normal: 0.411086 0.891089 0.192272
UV: 0.458921 0.529617

Position: -35.1445 -31.841 -17.8597
Normal: 0.411086 0.891089 0.192272
UV: 0.360578 0.529617

Position: -56.9934 -25.9146 -15.1961
Normal: 0.143735 0.98733 0.0672273
UV: 0.458921 0.36295

Position: -52.0495 -25.9146 -25.7664
Normal: 0.143735 0.98733 0.0672273
UV: 0.360578 0.36295

Position: -75.211 -25.6889 -23.7168
Normal: -0.135288 0.988784 -0.063277
UV: 0.458921 0.196283

Position: -70.2671 -25.6889 -34.2871
Normal: -0.135288 0.988784 -0.0632769
UV: 0.360578 0.196283

Position: -95.0421 -32.7273 -32.9922
Normal: -0.277238 0.952011 -0.129669
UV: 0.458921 0

Position: -90.0982 -32.7273 -43.5624
Normal: -0.277238 0.952011 -0.129669
UV: 0.360578 0

Position: -16.6863 -70.2082 -4.16946
Normal: 0.901128 0.265727 -0.342576
UV: 0.509267 1

Position: -12.3677 -70.2082 7.19038
Normal: 0.901128 0.265727 -0.342576
UV: 0.597221 1

Position: -20.8242 -37.3863 10.4052
Normal: 0.83263 0.454459 -0.316535
UV: 0.597221 0.696283

Position: -25.1427 -37.3863 -0.954639
Normal: 0.83263 0.454459 -0.316535
UV: 0.509267 0.696283

Position: -34.0639 -19.6749 15.4385
Normal: 0.600603 0.766252 -0.228328
UV: 0.597221 0.5

Position: -38.3825 -19.6749 4.07863
Normal: 0.600603 0.766252 -0.228328
UV: 0.509267 0.5

Position: -50.6881 -9.97297 21.7584
Normal: 0.248731 0.963946 -0.0945587
UV: 0.597221 0.333333

Position: -55.0067 -9.97297 10.3985
Normal: 0.248731 0.963946 -0.0945587
UV: 0.509267 0.333333

Position: -66.7439 -9.47932 14.8606
Normal: -0.0886593 0.995492 0.033705
UV: 0.509267 0.25

Position: -62.4253 -9.47932 26.2205
Normal: -0.0886594 0.995492 0.033705
UV: 0.597221 0.25

Position: -74.1626 -12.4099 30.6825
Normal: -0.40599 0.90075 0.154343
UV: 0.597221 0.166667

Position: -78.4811 -12.4099 19.3227
Normal: -0.40599 0.90075 0.154343
UV: 0.509267 0.166667

Position: -92.9184 -28.2849 37.8128
Normal: -0.579964 0.784239 0.220481
UV: 0.597221 0

Position: -97.237 -28.2849 26.453
Normal: -0.579964 0.784239 0.220481
UV: 0.509267 0

Position: -18.2902 -69.8671 0.415503
Normal: 0.698909 0.329803 -0.634631
UV: 0.629017 1

Position: -9.52836 -69.8671 10.0648
Normal: 0.698909 0.329803 -0.634631
UV: 0.74616 1

Position: -15.8885 -45.2758 15.84
Normal: 0.581561 0.618807 -0.528076
UV: 0.74616 0.70884

Position: -24.6504 -45.2758 6.19072
Normal: 0.581561 0.618807 -0.528076
UV: 0.629017 0.70884

Position: -26.6783 -35.8837 25.6375
Normal: 0.298263 0.915254 -0.270832
UV: 0.74616 0.542173

Position: -35.4402 -35.8837 15.9882
Normal: 0.298263 0.915254 -0.270832
UV: 0.629017 0.542173

Position: -39.8245 -31.2193 37.5746
Normal: -0.0295429 0.999204 0.0268259
UV: 0.74616 0.375507

Position: -48.5864 -31.2193 27.9253
Normal: -0.0295429 0.999203 0.0268259
UV: 0.629017 0.375507

Position: -52.339 -37.1363 48.9382
Normal: -0.430557 0.813493 0.390959
UV: 0.74616 0.20884

Position: -61.1009 -37.1363 39.2889
Normal: -0.430557 0.813493 0.390959
UV: 0.629017 0.20884

Position: -60.8908 -51.8316 56.7035
Normal: -0.58204 0.617985 0.528511
UV: 0.74616 0

Position: -69.6526 -51.8316 47.0542
Normal: -0.582041 0.617984 0.528511
UV: 0.629017 0

Position: -9.64176 -70.1786 -6.68627
Normal: 0.526838 0.242866 0.814529
UV: 0.77235 1

Position: -21.0481 -70.1786 0.691332
Normal: 0.526838 0.242866 0.814529
UV: 0.870663 1

Position: -25.8812 -34.633 -6.78111
Normal: 0.454724 0.546777 0.703037
UV: 0.870663 0.666667

Position: -14.4749 -34.633 -14.1587
Normal: 0.454724 0.546777 0.703037
UV: 0.772351 0.666667

Position: -34.9547 -21.691 -20.8093
Normal: 0.251054 0.886743 0.388148
UV: 0.870663 0.5

Position: -23.5484 -21.691 -28.1869
Normal: 0.251054 0.886743 0.388148
UV: 0.772351 0.5

Position: -46.7763 -14.9101 -39.0863
Normal: 0.0765199 0.990025 0.118305
UV: 0.870663 0.333333

Position: -35.3699 -14.9101 -46.4639
Normal: 0.0765199 0.990025 0.118305
UV: 0.772351 0.333333

Position: -59.4799 -15.3607 -58.727
Normal: -0.0977952 0.983654 -0.151199
UV: 0.870663 0.166667

Position: -48.0736 -15.3607 -66.1046
Normal: -0.0977952 0.983654 -0.151199
UV: 0.772351 0.166667

Position: -71.0602 -22.9718 -76.631
Normal: -0.182575 0.9418 -0.282274
UV: 0.870663 0

Position: -59.6539 -22.9718 -84.0086
Normal: -0.182575 0.9418 -0.282274
UV: 0.77235 0

Position: -6.32031 -68.592 -7.34953
Normal: 0.33713 0.34215 0.877084
UV: 0.878887 0.985724

Position: -16.8101 -68.6696 -3.28724
Normal: 0.33713 0.34215 0.877084
UV: 0.979205 0.985724

Position: -20.389 -42.8913 -11.9677
Normal: 0.253579 0.699468 0.668164
UV: 0.97847 0.668568

Position: -9.8992 -42.8137 -16.03
Normal: 0.254107 0.697998 0.669499
UV: 0.878153 0.668568

Position: -27.4127 -35.4682 -29.6103
Normal: 0.0455425 0.989591 0.136509
UV: 0.97933 0.487213

Position: -16.9229 -35.3906 -33.6726
Normal: 0.0458545 0.989466 0.137313
UV: 0.879012 0.487213

Position: -33.6682 -36.9187 -45.808
Normal: -0.114461 0.95393 -0.277337
UV: 0.97933 0.333333

Position: -23.1785 -36.8411 -49.8703
Normal: -0.11458 0.953826 -0.277647
UV: 0.879012 0.333333

Position: -39.069 -45.7529 -60.0244
Normal: -0.265972 0.689557 -0.673625
UV: 0.97933 0.166667

Position: -28.5792 -45.6753 -64.0867
Normal: -0.266234 0.688779 -0.674317
UV: 0.879012 0.166667

Position: -41.4992 -59.5627 -66.7225
Normal: -0.323897 0.458413 -0.827616
UV: 0.97933 0

Position: -31.0094 -59.4851 -70.7848
Normal: -0.323897 0.458413 -0.827616
UV: 0.879012 0

Position: -0.429073 -70.2079 -8.84636
Normal: -0.132049 0.139551 0.981371
UV: 0.226662 1

Position: -12.4937 -70.2079 -10.4697
Normal: -0.132049 0.139551 0.981371
UV: 0.314763 1

Position: -12.1516 -52.0069 -13.0119
Normal: -0.126569 0.314906 0.940646
UV: 0.314763 0.833333

Position: -0.0870094 -52.0069 -11.3885
Normal: -0.126569 0.314906 0.940646
UV: 0.226662 0.833333

Position: -11.0332 -36.6815 -21.3234
Normal: -0.101254 0.650752 0.752509
UV: 0.314763 0.666667

Position: 1.03135 -36.6815 -19.7
Normal: -0.101254 0.650752 0.752509
UV: 0.226662 0.666667

Position: -9.33365 -26.9049 -33.9544
Normal: -0.0556436 0.908786 0.413536
UV: 0.314763 0.5

Position: 2.73094 -26.9049 -32.3311
Normal: -0.0556436 0.908786 0.413536
UV: 0.226662 0.5

Position: -7.65351 -24.2654 -46.441
Normal: 0.00414412 0.999517 -0.0307976
UV: 0.314763 0.358486

Position: 4.41107 -24.2654 -44.8176
Normal: 0.00414412 0.999517 -0.0307976
UV: 0.226662 0.358486

Position: -5.69877 -28.3012 -60.9683
Normal: 0.06458 0.874916 -0.479949
UV: 0.314763 0.191819

Position: 6.36581 -28.3012 -59.345
Normal: 0.0645799 0.874916 -0.479949
UV: 0.226662 0.191819

Position: -4.09325 -39.3475 -72.9004
Normal: 0.090155 0.736849 -0.67002
UV: 0.314763 0.0251524

Position: 7.97134 -39.3475 -71.277
Normal: 0.090155 0.736849 -0.67002
UV: 0.226662 0.0251524

Position: -13.0837 -70.3907 -8.27348
Normal: 0.964061 0.239871 0.11423
UV: 0.77235 1

Position: -14.8522 -70.3907 6.65211
Normal: 0.964061 0.239871 0.11423
UV: 0.870663 1

Position: -24.6948 -30.2769 5.48587
Normal: 0.902702 0.41676 0.106959
UV: 0.870663 0.666667

Position: -22.9263 -30.2769 -9.43972
Normal: 0.902702 0.41676 0.106959
UV: 0.772351 0.666667

Position: -37.3348 -12.3541 3.98819
Normal: 0.740416 0.666398 0.0877306
UV: 0.870663 0.5

Position: -35.5662 -12.3541 -10.9374
Normal: 0.740416 0.666398 0.0877306
UV: 0.772351 0.5

Position: -54.4387 3.04673 1.96156
Normal: 0.58367 0.809041 0.069158
UV: 0.870663 0.333333

Position: -52.6702 3.04673 -12.964
Normal: 0.58367 0.809041 0.0691579
UV: 0.772351 0.333333

Position: -75.2384 15.2338 -0.502949
Normal: 0.417678 0.907246 0.0494897
UV: 0.870663 0.166667

Position: -73.4699 15.2338 -15.4285
Normal: 0.417678 0.907246 0.0494896
UV: 0.772351 0.166667

Position: -98.7993 23.6596 -3.29464
Normal: 0.332332 0.94234 0.0393772
UV: 0.870663 0

Position: -97.0308 23.6596 -18.2202
Normal: 0.332332 0.94234 0.0393772
UV: 0.77235 0

Position: -16.5156 -69.0252 10.1943
Normal: 0.0820048 0.118417 -0.989572
UV: 0.226625 0.988728

Position: -2.27116 -69.0252 11.3748
Normal: 0.0820047 0.118417 -0.989572
UV: 0.314726 0.988728

Position: -2.46457 -48.7806 13.7813
Normal: 0.0800961 0.2437 -0.966538
UV: 0.314763 0.833333

Position: -16.709 -48.7806 12.6009
Normal: 0.0800966 0.243677 -0.966543
UV: 0.226662 0.833333

Position: -3.13908 -27.9483 21.9208
Normal: 0.0725978 0.476717 -0.876054
UV: 0.314763 0.666667

Position: -17.3835 -27.9483 20.7404
Normal: 0.0725977 0.476717 -0.876054
UV: 0.226662 0.666667

Position: -4.25939 -8.95457 35.4398
Normal: 0.0526221 0.770716 -0.635003
UV: 0.314763 0.5

Position: -18.5039 -8.95457 34.2594
Normal: 0.0532316 0.764554 -0.642357
UV: 0.226662 0.5

Position: -4.58082 -0.86195 52.6395
Normal: 0.0201082 0.969906 -0.24265
UV: 0.314763 0.358486

Position: -18.8253 -0.861949 51.4591
Normal: 0.0214883 0.965557 -0.259303
UV: 0.226662 0.358486

Position: -4.49837 0.637019 74.5639
Normal: -0.0232311 0.959621 0.280336
UV: 0.314763 0.191819

Position: -18.7428 0.637022 73.3835
Normal: -0.0187628 0.97385 0.226415
UV: 0.226662 0.191819

Position: -2.48655 -9.88373 90.69
Normal: -0.0455636 0.83404 0.549819
UV: 0.314763 0.0251524

Position: -16.731 -9.88373 89.5095
Normal: -0.0455641 0.83404 0.549819
UV: 0.226662 0.0251524

Position: 1.84119 -70.2082 0.819803
Normal: -0.943953 0.255798 0.208617
UV: 0.360578 1

Position: -1.09119 -70.2082 -12.4486
Normal: -0.943952 0.255798 0.208617
UV: 0.458921 1

Position: 7.41017 -37.304 -14.3275
Normal: -0.872604 0.448744 0.192849
UV: 0.458921 0.696283

Position: 10.3426 -37.304 -1.05903
Normal: -0.872604 0.448744 0.192849
UV: 0.360578 0.696283

Position: 19.6175 -21.59 -17.0253
Normal: -0.68006 0.717586 0.150296
UV: 0.458921 0.529617

Position: 22.5498 -21.59 -3.75689
Normal: -0.68006 0.717586 0.150296
UV: 0.360578 0.529617

Position: 36.2757 -8.83001 -20.7069
Normal: -0.491592 0.864022 0.108643
UV: 0.458921 0.36295

Position: 39.208 -8.83001 -7.43842
Normal: -0.491592 0.864022 0.108643
UV: 0.360578 0.36295

Position: 56.3357 0.172462 -25.1402
Normal: -0.287568 0.955649 0.0635534
UV: 0.458921 0.196283

Position: 59.2681 0.172462 -11.8718
Normal: -0.287568 0.955649 0.0635535
UV: 0.360578 0.196283

Position: 82.5976 5.20233 -30.9442
Normal: -0.179496 0.982959 0.0396692
UV: 0.458921 0

Position: 85.53 5.20233 -17.6758
Normal: -0.179496 0.982959 0.0396692
UV: 0.360578 0

Position: -8.78118 -68.8678 12.3554
Normal: -0.682298 0.337287 -0.64862
UV: 0.509267 0.989347

Position: -2.14211 -68.8678 5.37157
Normal: -0.682298 0.337287 -0.64862
UV: 0.597221 0.989347

Position: 3.90301 -45.5879 11.1183
Normal: -0.565684 0.625151 -0.537762
UV: 0.597221 0.696283

Position: -2.73606 -45.5879 18.1021
Normal: -0.565684 0.625151 -0.537762
UV: 0.509267 0.696283

Position: 13.3556 -37.3349 20.1043
Normal: -0.201577 0.960545 -0.191627
UV: 0.597221 0.5

Position: 6.71655 -37.3349 27.0881
Normal: -0.201577 0.960545 -0.191627
UV: 0.509267 0.5

Position: 22.5411 -37.3412 28.8364
Normal: 0.186837 0.966201 0.177615
UV: 0.597221 0.333333

Position: 15.902 -37.3412 35.8202
Normal: 0.186837 0.966201 0.177615
UV: 0.509267 0.333333

Position: 30.7657 -43.8532 36.6551
Normal: 0.496914 0.727962 0.472385
UV: 0.597221 0.166667

Position: 24.1267 -43.8532 43.6389
Normal: 0.496914 0.727962 0.472385
UV: 0.509267 0.166667

Position: 36.3119 -55.5111 41.9275
Normal: 0.605897 0.548748 0.57599
UV: 0.597221 0

Position: 29.6728 -55.5111 48.9113
Normal: 0.605897 0.548748 0.57599
UV: 0.509267 0

Position: -9.07262 -70.5231 9.02038
Normal: -0.46323 0.235015 -0.854509
UV: 0.879012 1

Position: 5.35349 -70.5231 1.19997
Normal: -0.46323 0.235016 -0.854509
UV: 0.97933 1

Position: 9.10165 -37.9956 8.11412
Normal: -0.413976 0.495438 -0.763652
UV: 0.97933 0.741488

Position: -5.32445 -37.9956 15.9345
Normal: -0.413976 0.495438 -0.763652
UV: 0.879012 0.741488

Position: 19.8225 -16.1234 27.8905
Normal: -0.238763 0.865451 -0.44044
UV: 0.97933 0.487213

Position: 5.39636 -16.1234 35.7109
Normal: -0.238763 0.865451 -0.44044
UV: 0.879012 0.487213

Position: 28.2612 -11.0673 43.4572
Normal: -0.0358755 0.997163 -0.066179
UV: 0.97933 0.333333

Position: 13.8351 -11.0673 51.2776
Normal: -0.0358754 0.997163 -0.0661789
UV: 0.879012 0.333333

Position: 37.6294 -13.5862 60.7386
Normal: 0.156425 0.944599 0.288554
UV: 0.97933 0.166667

Position: 23.2033 -13.5862 68.559
Normal: 0.156425 0.944599 0.288554
UV: 0.879012 0.166667

Position: 45.9157 -24.0417 76.024
Normal: 0.2456 0.856986 0.453052
UV: 0.97933 0

Position: 31.4896 -24.0417 83.8444
Normal: 0.2456 0.856986 0.453052
UV: 0.879012 0

Position: 7.40512 -70.0844 -1.51831
Normal: -0.582235 0.087506 0.808298
UV: 0.226662 1

Position: -2.47242 -70.0844 -8.63333
Normal: -0.582235 0.0875061 0.808298
UV: 0.314763 1

Position: -1.34505 -48.1263 -10.1984
Normal: -0.573383 0.193909 0.796009
UV: 0.314763 0.833333

Position: 8.5325 -48.1263 -3.08341
Normal: -0.573383 0.193909 0.796009
UV: 0.226662 0.833333

Position: 2.49072 -27.1098 -15.5235
Normal: -0.535904 0.399128 0.743978
UV: 0.314763 0.666667

Position: 12.3683 -27.1098 -8.40848
Normal: -0.535904 0.399128 0.743978
UV: 0.226662 0.666667

Position: 8.8536 -8.02818 -24.3569
Normal: -0.476132 0.579983 0.660998
UV: 0.314763 0.5

Position: 18.7311 -8.02818 -17.2419
Normal: -0.476132 0.579983 0.660998
UV: 0.226662 0.5

Position: 16.0189 5.97901 -34.3043
Normal: -0.398847 0.730979 0.553706
UV: 0.314763 0.358486

Position: 25.8965 5.97901 -27.1892
Normal: -0.398847 0.730979 0.553706
UV: 0.226662 0.358486

Position: 26.1836 19.2063 -48.4155
Normal: -0.300804 0.857397 0.417596
UV: 0.314763 0.191819

Position: 36.0611 19.2063 -41.3005
Normal: -0.300804 0.857397 0.417596
UV: 0.226662 0.191819

Position: 37.7555 28.3097 -64.4805
Normal: -0.244167 0.908561 0.338969
UV: 0.314763 0.0251524

Position: 47.6331 28.3097 -57.3655
Normal: -0.244167 0.908561 0.338969
UV: 0.226662 0.0251524

Position: -9.14822 -70.2078 -3.63626
Normal: 0.990297 0.133073 0.0400561
UV: 0.0112757 1

Position: -9.64084 -70.2078 8.54264
Normal: 0.990296 0.133073 0.040056
UV: 0.0994888 1

Position: -12.0701 -52.1003 8.44437
Normal: 0.945392 0.323685 0.0382397
UV: 0.0994888 0.833333

Position: -11.5775 -52.1003 -3.73452
Normal: 0.945392 0.323685 0.0382397
UV: 0.0112757 0.833333

Position: -21.5672 -35.7197 8.06023
Normal: 0.692521 0.720854 0.0280115
UV: 0.0994888 0.640049

Position: -21.0746 -35.7197 -4.11868
Normal: 0.692521 0.720854 0.0280115
UV: 0.0112757 0.640049

Position: -34.5797 -28.8317 7.53389
Normal: 0.129013 0.991629 0.0052183
UV: 0.0994888 0.459704

Position: -34.0871 -28.8317 -4.64501
Normal: 0.129013 0.991629 0.00521834
UV: 0.0112757 0.459704

Position: -48.6834 -32.1002 6.96342
Normal: -0.534159 0.845108 -0.021606
UV: 0.0994888 0.273793

Position: -48.1908 -32.1002 -5.21549
Normal: -0.534159 0.845108 -0.021606
UV: 0.0112757 0.273793

Position: -61.0289 -47.6867 6.46406
Normal: -0.783007 0.621206 -0.0316716
UV: 0.0994888 0.0591021

Position: -60.5363 -47.6867 -5.71484
Normal: -0.783007 0.621206 -0.0316717
UV: 0.0112757 0.0591021

Position: 0.680408 -70.208 -5.17412
Normal: -0.339317 0.0827287 0.937027
UV: 0.108725 1

Position: -11.2281 -70.208 -9.48645
Normal: -0.339317 0.0827287 0.937027
UV: 0.200386 1

Position: -10.7118 -51.9391 -10.9124
Normal: -0.334081 0.193023 0.922568
UV: 0.200386 0.833333

Position: 1.19677 -51.9391 -6.60006
Normal: -0.334081 0.193023 0.922568
UV: 0.108725 0.833333

Position: -9.008 -36.0811 -15.6174
Normal: -0.305517 0.441416 0.843689
UV: 0.200386 0.666667

Position: 2.90055 -36.0811 -11.3051
Normal: -0.305517 0.441416 0.843689
UV: 0.108725 0.666667

Position: -6.36494 -24.9435 -22.9162
Normal: -0.22377 0.753707 0.617942
UV: 0.200386 0.5

Position: 5.5436 -24.9435 -18.6039
Normal: -0.22377 0.753707 0.617942
UV: 0.108725 0.5

Position: -3.16751 -20.1482 -31.7459
Normal: -0.0413579 0.992595 0.11421
UV: 0.200386 0.333333

Position: 8.74103 -20.1482 -27.4336
Normal: -0.041358 0.992595 0.11421
UV: 0.108725 0.333333

Position: 0.118637 -22.3936 -40.8207
Normal: 0.169164 0.867846 -0.467148
UV: 0.200386 0.166667

Position: 12.0272 -22.3936 -36.5083
Normal: 0.169164 0.867846 -0.467148
UV: 0.108725 0.166667

Position: 3.01494 -31.3527 -48.8188
Normal: 0.246915 0.688549 -0.68186
UV: 0.200386 0

Position: 14.9235 -31.3527 -44.5065
Normal: 0.246915 0.688549 -0.68186
UV: 0.108725 0

Position: -11.4566 -69.612 9.18121
Normal: -0.30193 0.140604 -0.942905
UV: 0.108725 1

Position: -1.72686 -69.612 6.12482
Normal: -0.296908 0.135944 -0.94518
UV: 0.200386 1

Position: -1.19566 -57.8091 7.65554
Normal: -0.292818 0.316113 -0.902402
UV: 0.200386 0.833333

Position: -10.8844 -57.8088 10.8303
Normal: -0.302871 0.318423 -0.898263
UV: 0.108725 0.833333

Position: 1.07653 -48.3251 12.2794
Normal: -0.245856 0.687128 -0.683674
UV: 0.200386 0.666667

Position: -8.43312 -48.3192 15.8191
Normal: -0.266356 0.666751 -0.696059
UV: 0.108725 0.666667

Position: 5.97086 -43.1427 18.3755
Normal: -0.0794585 0.975942 -0.203034
UV: 0.200386 0.5

Position: -3.14943 -43.1165 22.4019
Normal: -0.135874 0.938883 -0.316287
UV: 0.108725 0.5

Position: 13.4665 -43.3165 24.1888
Normal: 0.187811 0.919265 0.345945
UV: 0.200386 0.333333

Position: 4.93826 -43.2519 28.6739
Normal: 0.106555 0.978763 0.175125
UV: 0.108725 0.333333

Position: 21.8256 -48.8168 28.5538
Normal: 0.403477 0.634022 0.659713
UV: 0.200386 0.166667

Position: 13.9393 -48.7059 33.3657
Normal: 0.360557 0.744352 0.562085
UV: 0.108725 0.166667

Position: 28.1191 -58.5234 31.1206
Normal: 0.470224 0.515312 0.716479
UV: 0.200386 0

Position: 20.686 -58.3781 36.1005
Normal: 0.478625 0.531466 0.6989
UV: 0.108725 0

Position: 6.17084 -70.3981 -0.362821
Normal: 0.0558624 0.38484 0.921291
UV: 0.77235 1

Position: -9.35156 -70.5417 0.638361
Normal: 0.0558624 0.38484 0.921291
UV: 0.870663 1

Position: -4.2519 -29.5295 -16.8024
Normal: 0.0993008 0.614673 0.782507
UV: 0.870663 0.666667

Position: 10.9129 -32.2617 -16.5806
Normal: 0.101207 0.624594 0.774364
UV: 0.772351 0.666667

Position: 1.86491 -15.6685 -37.7218
Normal: 0.169248 0.877693 0.448342
UV: 0.870663 0.5

Position: 16.6008 -19.3727 -36.0332
Normal: 0.17147 0.882129 0.438687
UV: 0.772351 0.5

Position: 9.3504 -8.9909 -63.3222
Normal: 0.239375 0.956159 0.168701
UV: 0.870663 0.333333

Position: 23.5614 -13.1633 -59.8384
Normal: 0.240117 0.956443 0.166015
UV: 0.772351 0.333333

Position: 17.1867 -10.4048 -90.1221
Normal: 0.322847 0.940236 -0.108288
UV: 0.870663 0.166667

Position: 30.8482 -14.478 -84.7591
Normal: 0.321117 0.941424 -0.102979
UV: 0.772351 0.166667

Position: 24.3081 -19.7179 -114.477
Normal: 0.362303 0.901005 -0.238594
UV: 0.870663 0

Position: 37.4702 -23.1381 -107.407
Normal: 0.362303 0.901005 -0.238594
UV: 0.77235 0

Position: 6.58587 -69.0294 2.32451
Normal: 0.589803 -0.10917 0.800134
UV: 0.22651 0.988732

Position: -4.0716 -69.1568 10.1679
Normal: 0.590047 -0.109009 0.799976
UV: 0.315232 0.989428

Position: -1.70644 -47.5444 11.3684
Normal: 0.568875 -0.224743 0.791121
UV: 0.314763 0.833333

Position: 8.81078 -48.7892 3.45463
Normal: 0.568074 -0.22788 0.790799
UV: 0.226662 0.833333

Position: 6.28344 -25.7907 15.3791
Normal: 0.493859 -0.445176 0.746942
UV: 0.314763 0.666667

Position: 16.3259 -28.3281 7.22696
Normal: 0.491623 -0.44982 0.745633
UV: 0.226662 0.666667

Position: 19.3915 -6.76943 21.9588
Normal: 0.379094 -0.627232 0.680343
UV: 0.314763 0.5

Position: 28.6551 -10.437 13.4158
Normal: 0.376066 -0.630897 0.678633
UV: 0.226662 0.5

Position: 33.9221 6.3222 29.2527
Normal: 0.240908 -0.761025 0.602332
UV: 0.314763 0.358486

Position: 42.3223 1.87672 20.2762
Normal: 0.236855 -0.764089 0.600057
UV: 0.226662 0.358486

Position: 54.0787 17.2716 39.3706
Normal: 0.0768157 -0.855097 0.512747
UV: 0.314763 0.191819

Position: 61.2813 12.1755 29.793
Normal: 0.0737764 -0.856337 0.511121
UV: 0.226662 0.191819

Position: 76.2953 22.7331 50.5226
Normal: -0.0136856 -0.88696 0.461643
UV: 0.314763 0.0251524

Position: 82.1778 17.3125 40.2823
Normal: -0.0136856 -0.88696 0.461643
UV: 0.226662 0.0251524

Position: -2.46953 -70.1846 -11.7545
Normal: 0.703195 -0.251126 -0.665171
UV: 0.509267 1

Position: 5.8746 -70.2232 -2.91884
Normal: 0.703195 -0.251126 -0.665171
UV: 0.597221 1

Position: 10.8596 -38.365 -9.67655
Normal: 0.644167 -0.487492 -0.589407
UV: 0.597221 0.696283

Position: 2.40421 -39.0373 -18.3615
Normal: 0.640693 -0.496935 -0.585294
UV: 0.509267 0.696283

Position: 19.0462 -24.6323 -20.7745
Normal: 0.426161 -0.838724 -0.339012
UV: 0.597221 0.5

Position: 10.4082 -25.611 -29.2117
Normal: 0.413821 -0.850357 -0.325029
UV: 0.509267 0.5

Position: 27.6914 -19.884 -32.4941
Normal: 0.135844 -0.990612 -0.0153086
UV: 0.597221 0.333333

Position: 18.8605 -20.9686 -40.6698
Normal: 0.115102 -0.993326 0.00745556
UV: 0.509267 0.333333

Position: 36.5577 -22.2679 -44.5134
Normal: -0.173301 -0.93164 0.319396
UV: 0.597221 0.166667

Position: 27.5289 -23.2994 -52.4209
Normal: -0.193264 -0.9201 0.340684
UV: 0.509267 0.166667

Position: 44.3442 -31.4343 -55.0688
Normal: -0.321763 -0.819469 0.474277
UV: 0.597221 0

Position: 35.1416 -32.2612 -62.7408
Normal: -0.321763 -0.819469 0.474277
UV: 0.509267 0

Position: 5.06885 -69.9122 -14.3964
Normal: 0.972705 -0.21213 0.0940492
UV: 0.629017 1

Position: 3.80163 -69.8798 -1.21716
Normal: 0.972705 -0.21213 0.0940491
UV: 0.74616 1

Position: 9.04243 -45.2493 0.134434
Normal: 0.903139 -0.422199 0.0780231
UV: 0.74616 0.70884

Position: 10.432 -44.7065 -13.0132
Normal: 0.905986 -0.41595 0.078582
UV: 0.629017 0.70884

Position: 16.6052 -35.1636 2.08486
Normal: 0.642319 -0.765798 0.0312874
UV: 0.74616 0.542173

Position: 18.1714 -34.3852 -11.0172
Normal: 0.655302 -0.754624 0.0335031
UV: 0.629017 0.542173

Position: 26.2107 -29.9683 4.56211
Normal: 0.217061 -0.975438 -0.037485
UV: 0.74616 0.375507

Position: 28.0013 -29.0686 -8.48213
Normal: 0.248303 -0.968131 -0.0326923
UV: 0.629017 0.375507

Position: 36.4496 -30.4256 7.2027
Normal: -0.32482 -0.93875 -0.115067
UV: 0.74616 0.20884

Position: 38.4792 -29.5366 -5.77987
Normal: -0.286095 -0.951877 -0.109912
UV: 0.629017 0.20884

Position: 47.8831 -38.7942 10.1514
Normal: -0.560167 -0.815865 -0.143446
UV: 0.74616 0

Position: 50.1798 -38.1006 -2.7623
Normal: -0.560167 -0.815865 -0.143446
UV: 0.629017 0

Position: 0.503162 -68.97 -5.52295
Normal: 0.98131 -0.153359 0.116236
UV: 0.360578 0.987904

Position: -1.37419 -68.9738 10.3213
Normal: 0.981311 -0.153359 0.116236
UV: 0.458921 0.987904

Position: 5.22964 -26.5638 10.5239
Normal: 0.955272 -0.272125 0.115771
UV: 0.458921 0.696283

Position: 7.05377 -26.9017 -5.32197
Normal: 0.955165 -0.272503 0.115767
UV: 0.360578 0.696283

Position: 14.9137 -3.59503 10.821
Normal: 0.878442 -0.464511 0.112113
UV: 0.458921 0.529617

Position: 16.6598 -4.11809 -5.02725
Normal: 0.878044 -0.465268 0.112094
UV: 0.360578 0.529617

Position: 28.6108 17.706 11.2413
Normal: 0.650446 -0.752926 0.100116
UV: 0.458921 0.36295

Position: 30.2465 17.0113 -4.6104
Normal: 0.644437 -0.757984 0.100801
UV: 0.360578 0.36295

Position: 49.1373 26.9813 12.1492
Normal: 0.139897 -0.988032 0.0649751
UV: 0.458921 0.196283

Position: 50.6331 26.1328 -3.70672
Normal: 0.121611 -0.990344 0.0665541
UV: 0.360578 0.196283

Position: 75.603 22.9328 13.1315
Normal: -0.157135 -0.986526 0.0455413
UV: 0.458921 0

Position: 76.9012 21.9313 -2.73053
Normal: -0.159528 -0.985967 0.0491959
UV: 0.360578 0

Position: 2.6939 -70.4513 -6.9927
Normal: 0.297396 0.162176 0.94088
UV: 0.629017 1

Position: -13.4837 -70.504 -1.87016
Normal: 0.297396 0.162176 0.94088
UV: 0.74616 1

Position: -14.0962 -32.9545 -8.14885
Normal: 0.295114 0.297505 0.907964
UV: 0.74616 0.70884

Position: 2.09747 -33.8874 -13.1066
Normal: 0.295061 0.298862 0.907535
UV: 0.629017 0.70884

Position: -15.0435 -12.8961 -17.8598
Normal: 0.262845 0.663372 0.700607
UV: 0.74616 0.542173

Position: 1.17499 -14.3555 -22.5627
Normal: 0.265852 0.661463 0.701277
UV: 0.629017 0.542173

Position: -19.736 -1.32482 -35.6123
Normal: 0.196513 0.92129 0.33557
UV: 0.74616 0.375507

Position: -3.4822 -3.26027 -39.9534
Normal: 0.203443 0.918488 0.339104
UV: 0.629017 0.375507

Position: -26.4632 4.44915 -59.6214
Normal: 0.108342 0.986021 -0.126585
UV: 0.74616 0.20884

Position: -10.1649 2.10451 -63.5064
Normal: 0.130594 0.988499 -0.0762493
UV: 0.629017 0.20884

Position: -39.9742 -3.36259 -81.2326
Normal: 0.0633393 0.918694 -0.389857
UV: 0.74616 0

Position: -23.6095 -6.10416 -84.4374
Normal: 0.0734582 0.911513 -0.404659
UV: 0.629017 0

Position: -10.8194 -70.5547 -4.84965
Normal: 0.973952 0.196329 0.113453
UV: 0.77235 1

Position: -12.8052 -70.7217 11.9017
Normal: 0.973643 0.195559 0.11737
UV: 0.870663 1

Position: -21.2023 -23.8779 3.5102
Normal: 0.939882 0.33491 0.0667621
UV: 0.870663 0.666667

Position: -18.887 -27.2665 -12.6404
Normal: 0.935978 0.34752 0.0563507
UV: 0.772351 0.666667

Position: -31.9389 -3.44474 -6.92889
Normal: 0.838823 0.543909 -0.0232177
UV: 0.870663 0.5

Position: -29.2022 -8.47229 -22.3111
Normal: 0.829904 0.556385 -0.0411687
UV: 0.772351 0.5

Position: -46.3986 13.6022 -20.4363
Normal: 0.737286 0.664119 -0.123914
UV: 0.870663 0.333333

Position: -43.0945 7.09569 -34.7839
Normal: 0.726835 0.671122 -0.145967
UV: 0.772351 0.333333

Position: -63.9129 26.5595 -35.8694
Normal: 0.625877 0.741851 -0.240698
UV: 0.870663 0.166667

Position: -59.9223 18.7716 -48.9653
Normal: 0.616175 0.741798 -0.264696
UV: 0.772351 0.166667

Position: -83.7349 35.0531 -51.9641
Normal: 0.561441 0.761469 -0.323956
UV: 0.870663 0

Position: -78.9696 26.2065 -63.6476
Normal: 0.559191 0.754613 -0.343313
UV: 0.77235 0

Position: 5.36523 -70.499 5.1629
Normal: -0.844345 0.116941 0.522883
UV: 0.879012 1

Position: -2.21517 -70.499 -7.07783
Normal: -0.844345 0.116941 0.522883
UV: 0.97933 1

Position: 1.1381 -37.0024 -9.15443
Normal: -0.82428 0.244941 0.510457
UV: 0.97933 0.741488

Position: 8.7185 -37.0024 3.0863
Normal: -0.82428 0.244941 0.510457
UV: 0.879012 0.741488

Position: 11.6763 -5.76097 -15.6805
Normal: -0.680405 0.599588 0.421359
UV: 0.97933 0.487213

Position: 19.2567 -5.76096 -3.43979
Normal: -0.673229 0.603626 0.427081
UV: 0.879012 0.487213

Position: 28.0246 9.21477 -25.7605
Normal: -0.334049 0.909511 0.247387
UV: 0.97933 0.333333

Position: 36.1895 8.8557 -13.9104
Normal: -0.325931 0.911139 0.25218
UV: 0.879012 0.333333

Position: 47.4495 14.4191 -39.7857
Normal: 0.0990259 0.994355 -0.0381
UV: 0.97933 0.166667

Position: 55.6144 14.06 -27.9356
Normal: 0.0738241 0.997057 -0.0206538
UV: 0.879012 0.166667

Position: 63.2579 5.69086 -54.5691
Normal: 0.326362 0.924519 -0.196855
UV: 0.97933 0

Position: 71.4227 5.3318 -42.7191
Normal: 0.326362 0.924519 -0.196855
UV: 0.879012 0

Position: -0.496624 -70.4434 2.76184
Normal: -0.147215 -0.0875445 0.985223
UV: 0.629017 1

Position: -16.4995 -70.3733 0.333126
Normal: -0.149836 -0.088872 0.984709
UV: 0.74616 1

Position: -18.6192 -34.8377 3.21775
Normal: -0.134103 -0.162738 0.977514
UV: 0.74616 0.70884

Position: -2.67019 -33.5926 5.5914
Normal: -0.130215 -0.158499 0.978735
UV: 0.629017 0.70884

Position: -21.8894 -14.7678 7.76012
Normal: -0.105209 -0.285679 0.952533
UV: 0.74616 0.542173

Position: -6.02149 -12.8036 10.0509
Normal: -0.0995949 -0.277346 0.955594
UV: 0.629017 0.542173

Position: -26.5089 4.90383 14.3875
Normal: -0.0681272 -0.379098 0.922845
UV: 0.74616 0.375507

Position: -10.7511 7.54268 16.5656
Normal: -0.0617725 -0.368871 0.927426
UV: 0.629017 0.375507

Position: -32.2866 23.9838 23.0786
Normal: -0.0223071 -0.469687 0.882551
UV: 0.74616 0.20884

Position: -16.6596 27.239 25.1231
Normal: -0.0155772 -0.45849 0.888563
UV: 0.629017 0.20884

Position: -40.7742 46.7024 36.8464
Normal: 0.0131999 -0.503866 0.863681
UV: 0.74616 0

Position: -25.3243 50.6307 38.7099
Normal: 0.0214782 -0.496182 0.867953
UV: 0.629017 0

Position: -6.84512 -69.7474 1.6615
Normal: -0.74251 0.0498761 -0.667976
UV: 0.0112757 1

Position: -0.867002 -69.7474 -4.94839
Normal: -0.740802 0.0481407 -0.669996
UV: 0.0994888 1

Position: -0.37557 -56.1869 -4.51741
Normal: -0.735769 0.161583 -0.657673
UV: 0.0994888 0.833333

Position: -6.30577 -56.1884 2.1345
Normal: -0.739697 0.163745 -0.652714
UV: 0.0112757 0.833333

Position: 2.94597 -41.3099 -2.01066
Normal: -0.668553 0.484148 -0.56448
UV: 0.0994888 0.640049

Position: -2.76988 -41.3503 4.80125
Normal: -0.681395 0.473893 -0.557787
UV: 0.0112757 0.640049

Position: 10.9738 -30.8054 2.37239
Normal: -0.346489 0.905099 -0.246459
UV: 0.0994888 0.459704

Position: 5.63979 -31.0175 9.38042
Normal: -0.425772 0.858085 -0.287069
UV: 0.0112757 0.459704

Position: 26.4415 -28.5194 6.7703
Normal: 0.280655 0.922813 0.263909
UV: 0.0994888 0.273793

Position: 21.6995 -29.1953 13.9105
Normal: 0.111758 0.978819 0.171532
UV: 0.0112757 0.273793

Position: 53.4755 -44.8004 5.04116
Normal: 0.491735 0.747073 0.447303
UV: 0.0994888 0.0591021

Position: 49.5919 -46.5366 12.0358
Normal: 0.491595 0.741304 0.45695
UV: 0.0112757 0.0591021

Position: -0.230718 -70.6487 -2.84094
Normal: 0.473228 -0.195621 0.858946
UV: 0.509267 1

Position: -10.8675 -70.625 3.0374
Normal: 0.474041 -0.195348 0.858559
UV: 0.597221 1

Position: -7.59339 -29.8321 10.5112
Normal: 0.450835 -0.369684 0.812454
UV: 0.597221 0.696283

Position: 3.10783 -29.4213 4.76675
Normal: 0.449217 -0.370489 0.812983
UV: 0.509267 0.696283

Position: -2.02573 -7.53156 23.4075
Normal: 0.378077 -0.640882 0.668078
UV: 0.597221 0.5

Position: 8.77958 -6.93968 17.8827
Normal: 0.37532 -0.641272 0.669257
UV: 0.509267 0.5

Position: 4.1999 7.08725 38.1688
Normal: 0.291533 -0.817022 0.497478
UV: 0.597221 0.333333

Position: 15.112 7.73205 32.8761
Normal: 0.288011 -0.81702 0.499529
UV: 0.509267 0.333333

Position: 11.1625 16.8665 55.2491
Normal: 0.188732 -0.936335 0.296069
UV: 0.597221 0.166667

Position: 22.1787 17.4592 50.1946
Normal: 0.184804 -0.935925 0.299819
UV: 0.509267 0.166667

Position: 18.1984 21.4022 73.4169
Normal: 0.126419 -0.974177 0.187074
UV: 0.597221 0

Position: 29.2973 21.8408 68.5724
Normal: 0.119773 -0.975202 0.186109
UV: 0.509267 0

Position: -0.885246 -70.6715 -8.47142
Normal: 0.922711 -0.0613747 0.380574
UV: 0.879012 1

Position: -6.1705 -70.6715 4.34282
Normal: 0.922711 -0.0613747 0.380574
UV: 0.97933 1

Position: -4.09208 -34.1087 5.20007
Normal: 0.916588 -0.130172 0.378049
UV: 0.97933 0.741488

Position: 1.19318 -34.1087 -7.61417
Normal: 0.916588 -0.130172 0.378049
UV: 0.879012 0.741488

Position: 2.51412 1.20335 7.9248
Normal: 0.843959 -0.408122 0.348093
UV: 0.97933 0.487213

Position: 7.79938 1.20335 -4.88944
Normal: 0.843916 -0.408227 0.348075
UV: 0.879012 0.487213

Position: 16.9693 22.1392 13.8643
Normal: 0.641935 -0.719595 0.264768
UV: 0.97933 0.333333

Position: 22.2546 22.1392 1.05003
Normal: 0.641458 -0.720093 0.26457
UV: 0.879012 0.333333

Position: 38.195 37.9636 22.4357
Normal: 0.366393 -0.918106 0.151119
UV: 0.97933 0.166667

Position: 43.4802 37.9636 9.62143
Normal: 0.364257 -0.9191 0.150238
UV: 0.879012 0.166667

Position: 63.6153 43.724 32.511
Normal: 0.190581 -0.978519 0.0786062
UV: 0.97933 0

Position: 68.9006 43.724 19.6967
Normal: 0.190581 -0.978519 0.0786064
UV: 0.879012 0

Position: -0.592026 -70.3448 -4.47854
Normal: 0.492421 0.144468 0.858283
UV: 0.629017 1

Position: -14.5165 -70.3448 3.77406
Normal: 0.504021 0.150787 0.850427
UV: 0.74616 1

Position: -17.1062 -35.5358 -0.863013
Normal: 0.450324 0.295975 0.842382
UV: 0.74616 0.70884

Position: -2.77619 -35.5277 -8.38946
Normal: 0.431887 0.283139 0.856333
UV: 0.629017 0.70884

Position: -21.2666 -16.505 -9.54344
Normal: 0.341098 0.547391 0.764209
UV: 0.74616 0.542173

Position: -6.37906 -16.4516 -15.8959
Normal: 0.31425 0.527985 0.788974
UV: 0.629017 0.542173

Position: -26.6507 0.975286 -24.0692
Normal: 0.201985 0.735588 0.646616
UV: 0.74616 0.375507

Position: -11.1309 1.16315 -28.661
Normal: 0.170962 0.71956 0.673056
UV: 0.629017 0.375507

Position: -31.6335 15.919 -45.2953
Normal: 0.0595373 0.877087 0.476628
UV: 0.74616 0.20884

Position: -15.6134 16.3981 -47.5399
Normal: 0.0267574 0.868835 0.494378
UV: 0.629017 0.20884

Position: -33.3805 29.3667 -81.3423
Normal: -0.0676606 0.919096 0.388182
UV: 0.74616 0

Position: -17.3146 30.5388 -79.9308
Normal: -0.101736 0.909747 0.402506
UV: 0.629017 0

Position: 1.61383 -70.3663 -7.87815
Normal: 0.657075 0.0901053 0.74842
UV: 0.77235 1

Position: -8.59446 -70.3663 1.08421
Normal: 0.657075 0.0901053 0.74842
UV: 0.870663 1

Position: -11.0104 -29.8915 -1.66762
Normal: 0.650877 0.163536 0.74136
UV: 0.870663 0.666667

Position: -0.80213 -29.8915 -10.63
Normal: 0.650877 0.163536 0.74136
UV: 0.772351 0.666667

Position: -14.1977 -10.006 -5.29795
Normal: 0.63277 0.283095 0.720736
UV: 0.870663 0.5

Position: -3.98937 -10.006 -14.2603
Normal: 0.63277 0.283095 0.720736
UV: 0.772351 0.5

Position: -18.6764 9.44901 -10.3993
Normal: 0.611796 0.374314 0.696846
UV: 0.870663 0.333333

Position: -8.46807 9.44901 -19.3616
Normal: 0.611796 0.374314 0.696846
UV: 0.772351 0.333333

Position: -24.4135 28.3305 -16.934
Normal: 0.585623 0.460554 0.667035
UV: 0.870663 0.166667

Position: -14.2053 28.3305 -25.8964
Normal: 0.585623 0.460554 0.667035
UV: 0.772351 0.166667

Position: -31.367 46.4994 -24.8542
Normal: 0.570693 0.50177 0.650029
UV: 0.870663 0

Position: -21.1587 46.4994 -33.8165
Normal: 0.570693 0.50177 0.650029
UV: 0.77235 0


[INDEX_DATA]
0 2 1
2 0 3
3 4 2
4 3 5
5 6 4
6 5 7
7 8 6
8 7 9
9 10 8
10 9 11
12 14 13
14 12 15
15 16 14
16 15 17
17 18 16
18 17 19
19 20 18
20 19 21
21 22 20
22 21 23
23 24 22
24 23 25
26 28 27
28 26 29
29 30 28
30 29 31
31 32 30
32 31 33
33 34 32
34 33 35
35 36 34
36 35 37
38 40 39
40 38 41
41 42 40
42 41 43
43 44 42
44 43 45
46 48 47
48 46 49
49 50 48
50 49 51
45 47 44
47 45 46
52 54 53
54 52 55
55 56 54
56 55 57
57 58 56
58 57 59
59 60 58
60 59 61
61 62 60
62 61 63
64 66 65
66 64 67
67 68 66
68 67 69
69 70 68
70 69 71
71 72 70
72 71 73
73 74 72
74 73 75
76 78 77
78 76 79
79 80 78
80 79 81
81 82 80
82 81 83
83 84 82
84 83 85
85 86 84
86 85 87
88 90 89
90 88 91
91 92 90
92 91 93
93 94 92
94 93 95
95 96 94
96 95 97
97 98 96
98 97 99
99 100 98
100 99 101
102 104 103
104 102 105
105 106 104
106 105 107
107 108 106
108 107 109
109 110 108
110 109 111
111 112 110
112 111 113
114 116 115
116 114 117
117 118 116
118 117 119
119 120 118
120 119 121
121 122 120
122 121 123
123 124 122
124 123 125
125 126 124
126 125 127
128 130 129
130 128 131
131 132 130
132 131 133
133 134 132
134 133 135
135 136 134
136 135 137
137 138 136
138 137 139
140 142 141
142 140 143
143 144 142
144 143 145
145 146 144
146 145 147
147 148 146
148 147 149
149 150 148
150 149 151
152 154 153
154 152 155
155 156 154
156 155 157
157 158 156
158 157 159
159 160 158
160 159 161
161 162 160
162 161 163
164 166 165
166 164 167
167 168 166
168 167 169
169 170 168
170 169 171
171 172 170
172 171 173
173 174 172
174 173 175
175 176 174
176 175 177
178 180 179
180 178 181
181 182 180
182 181 183
183 184 182
184 183 185
185 186 184
186 185 187
187 188 186
188 187 189
190 192 191
192 190 193
193 194 192
194 193 195
195 196 194
196 195 197
197 198 196
198 197 199
199 200 198
200 199 201
201 202 200
202 201 203
204 206 205
206 204 207
207 208 206
208 207 209
209 210 208
210 209 211
211 212 210
212 211 213
213 214 212
214 213 215
215 216 214
216 215 217
218 220 219
220 218 221
221 222 220
222 221 223
223 224 222
224 223 225
225 226 224
226 225 227
227 228 226
228 227 229
230 232 231
232 230 233
233 234 232
234 233 235
235 236 234
236 235 237
237 238 236
238 237 239
239 240 238
240 239 241
241 242 240
242 241 243
244 246 245
246 244 247
247 248 246
248 247 249
249 250 248
250 249 251
251 252 250
252 251 253
253 254 252
254 253 255
256 258 257
258 256 259
259 260 258
260 259 261
261 262 260
262 261 263
263 264 262
264 263 265
265 266 264
266 265 267
268 270 269
270 268 271
271 272 270
272 271 273
273 274 272
274 273 275
275 276 274
276 275 277
277 278 276
278 277 279
280 282 281
282 280 283
283 284 282
284 283 285
285 286 284
286 285 287
287 288 286
288 287 289
289 290 288
290 289 291
292 294 293
294 292 295
295 296 294
296 295 297
297 298 296
298 297 299
299 300 298
300 299 301
301 302 300
302 301 303
304 306 305
306 304 307
307 308 306
308 307 309
309 310 308
310 309 311
311 312 310
312 311 313
313 314 312
314 313 315
316 318 317
318 316 319
319 320 318
320 319 321
321 322 320
322 321 323
323 324 322
324 323 325
325 326 324
326 325 327
328 330 329
330 328 331
331 332 330
332 331 333
333 334 332
334 333 335
335 336 334
336 335 337
337 338 336
338 337 339
340 342 341
342 340 343
343 344 342
344 343 345
345 346 344
346 345 347
347 348 346
348 347 349
349 350 348
350 349 351
352 354 353
354 352 355
355 356 354
356 355 357
357 358 356
358 357 359
359 360 358
360 359 361
361 362 360
362 361 363
364 366 365
366 364 367
367 368 366
368 367 369
369 370 368
370 369 371
371 372 370
372 371 373
373 374 372
374 373 375
376 378 377
378 376 379
379 380 378
380 379 381
381 382 380
382 381 383
383 384 382
384 383 385
385 386 384
386 385 387

