[FBX_META_DATA]
MeshCount: 1

[MESH_DATA]
VertexCount: 240
IndexCount: 600
BoneCount: 0
AnimationClips: 1

[VERTEX_DATA]
Position: 44.9665 -70.8499 0
Normal: 2.05862e-009 -0.0374001 0.9993
UV: 0.172898 1.0001

Position: 36.0124 -70.8499 0
Normal: -0 -0.0374001 0.9993
UV: 0.238064 1.00033

Position: 34.279 -47.6843 0.867003
Normal: -2.72627e-008 0.0708858 0.997484
UV: 0.250633 0.833333

Position: 46.7328 -47.6843 0.867003
Normal: -1.23942e-008 0.070515 0.997511
UV: 0.160032 0.8333

Position: 33.7704 -27.2247 -2.69862
Normal: 4.15866e-009 0.313239 0.949674
UV: 0.254339 0.666725

Position: 46.977 -27.2247 -2.69862
Normal: 6.92021e-008 0.311964 0.950094
UV: 0.158259 0.666659

Position: 33.7619 -12.1771 -10.1975
Normal: 3.3976e-007 0.66931 0.742983
UV: 0.254403 0.500069

Position: 46.7172 -12.1771 -10.1975
Normal: 2.4985e-007 0.665657 0.746257
UV: 0.16015 0.499991

Position: 33.8871 -5.24758 -21.1302
Normal: 1.401e-007 0.98664 0.162913
UV: 0.253505 0.333465

Position: 46.0906 -5.24758 -21.1302
Normal: 4.18931e-008 0.985549 0.16939
UV: 0.164711 0.333339

Position: 35.5292 -9.14214 -34.9973
Normal: 2.81026e-007 0.865563 -0.5008
UV: 0.241651 0.166974

Position: 44.3347 -9.14215 -34.9973
Normal: 3.75648e-007 0.867118 -0.498103
UV: 0.177515 0.166717

Position: 39.6153 -27.5235 -51.9545
Normal: 2.93746e-007 0.67806 -0.735006
UV: 0.211938 -0.00653887

Position: 42.1451 -74.0416 5.39057
Normal: -0.970497 0.196743 -0.139385
UV: 0.0281561 1

Position: 43.1724 -72.7776 -0.0751228
Normal: -0.97073 0.197399 -0.136811
UV: 0.0932198 0.999999

Position: 47.4761 -51.4794 0.118839
Normal: -0.929364 0.352865 -0.108486
UV: 0.105262 0.833481

Position: 46.1268 -52.8666 7.11196
Normal: -0.941625 0.313554 -0.122578
UV: 0.0218512 0.833349

Position: 55.5925 -36.0515 -0.871685
Normal: -0.787083 0.614044 -0.0587447
UV: 0.119878 0.666667

Position: 53.9369 -37.2992 7.91045
Normal: -0.816988 0.572425 -0.0697232
UV: 0.0136621 0.666667

Position: 66.1288 -25.775 -1.35452
Normal: -0.563069 0.826158 0.0203796
UV: 0.119898 0.500113

Position: 64.9208 -26.8376 7.0786
Normal: -0.59015 0.806505 0.0356804
UV: 0.0136644 0.500006

Position: 78.213 -19.5805 -1.846
Normal: -0.286729 0.939664 0.186597
UV: 0.113596 0.333525

Position: 78.1284 -21.1506 5.03307
Normal: -0.270106 0.931523 0.243531
UV: 0.019208 0.33335

Position: 91.0951 -16.8923 -2.35027
Normal: 0.0279274 0.89038 0.454361
UV: 0.10185 0.167044

Position: 92.3833 -19.464 1.98095
Normal: 0.0688476 0.866661 0.494124
UV: 0.0320327 0.166726

Position: 105.504 -19.123 -2.24733
Normal: 0.131131 0.869054 0.477021
UV: 0.0672969 -0.00332153

Position: 27.3211 -75.852 7.19175
Normal: -0.773643 0.274119 -0.571258
UV: 0.321071 0.999998

Position: 32.5957 -73.5604 2.07086
Normal: -0.728545 0.272815 -0.628326
UV: 0.392806 0.999985

Position: 31.8117 -56.6952 10.3027
Normal: -0.852076 0.266784 -0.450324
UV: 0.406769 0.833343

Position: 26.9824 -60.4936 17.8155
Normal: -0.884576 0.267817 -0.381837
UV: 0.312027 0.833304

Position: 32.448 -40.3281 19.008
Normal: -0.940421 0.250443 -0.229972
UV: 0.413125 0.666672

Position: 29.3262 -45.2764 28.0056
Normal: -0.955587 0.25148 -0.153657
UV: 0.306518 0.666667

Position: 34.359 -24.5264 28.3348
Normal: -0.976704 0.213177 -0.0246113
UV: 0.412213 0.500019

Position: 33.333 -29.831 37.4023
Normal: -0.977195 0.208613 0.0396378
UV: 0.308344 0.500001

Position: 38.5622 -2.79552 41.7371
Normal: -0.97693 0.130789 0.168825
UV: 0.408187 0.26636

Position: 39.626 -8.23815 50.5131
Normal: -0.972588 0.125523 0.195744
UV: 0.309522 0.266269

Position: 44.2867 20.1246 61.0595
Normal: -0.979514 0.0949176 0.177603
UV: 0.363076 -0.00570405

Position: 20.8801 -77.9496 6.24294
Normal: 0.328667 -0.0468001 0.943286
UV: 0.0281561 1

Position: 15.0121 -79.648 8.21932
Normal: 0.330537 -0.0449852 0.94272
UV: 0.0932198 0.999999

Position: 3.96197 -58.3782 13.1087
Normal: 0.274447 0.107896 0.95553
UV: 0.105262 0.833481

Position: 11.3965 -55.9902 10.7105
Normal: 0.284225 0.0654976 0.956518
UV: 0.0218512 0.833349

Position: -7.96771 -42.7702 12.4262
Normal: 0.14382 0.376665 0.915117
UV: 0.119878 0.666667

Position: 1.14424 -39.2903 9.58771
Normal: 0.166063 0.331228 0.928822
UV: 0.0136621 0.666667

Position: -18.7803 -31.4131 7.04664
Normal: 0.0108999 0.630517 0.776099
UV: 0.119898 0.500113

Position: -10.3105 -27.8774 4.01775
Normal: 0.0439854 0.617397 0.785421
UV: 0.0136644 0.500006

Position: -28.8469 -23.7185 -1.52437
Normal: -0.046463 0.851763 0.521864
UV: 0.113596 0.333525

Position: -22.1814 -21.3581 -5.14472
Normal: -0.00827711 0.875835 0.482539
UV: 0.019208 0.33335

Position: -37.9645 -19.2617 -12.332
Normal: 0.0134573 0.990848 0.134307
UV: 0.10185 0.167044

Position: -33.9119 -19.0697 -16.551
Normal: 0.0313326 0.996658 0.0754435
UV: 0.0320327 0.166726

Position: -45.4479 -18.9265 -26.9385
Normal: -0.0153001 0.999409 0.0307743
UV: 0.0672969 -0.00332153

Position: 22.766 -74.9711 4.35945
Normal: 0.535119 0.575881 -0.618069
UV: 0.0281561 1

Position: 30.2293 -77.0959 8.80664
Normal: 0.532986 0.577203 -0.618679
UV: 0.0932198 0.999999

Position: 27.8909 -56.8701 25.6621
Normal: 0.517864 0.676112 -0.524108
UV: 0.105262 0.833481

Position: 18.4025 -53.9321 20.0559
Normal: 0.521304 0.673922 -0.523518
UV: 0.0218512 0.833349

Position: 22.8523 -43.0352 44.4889
Normal: 0.46947 0.819257 -0.329265
UV: 0.119878 0.666667

Position: 10.951 -38.8772 37.7673
Normal: 0.467591 0.822401 -0.32406
UV: 0.0136621 0.666667

Position: 14.0155 -33.8505 63.2085
Normal: 0.393254 0.907395 -0.148272
UV: 0.119898 0.500113

Position: 2.21426 -29.7392 57.2943
Normal: 0.372868 0.917468 -0.138645
UV: 0.0136644 0.500006

Position: 3.17363 -28.5886 81.5797
Normal: 0.26514 0.964137 -0.0118129
UV: 0.113596 0.333525

Position: -7.44452 -25.9269 77.4685
Normal: 0.21684 0.976205 -0.00191506
UV: 0.019208 0.33335

Position: -8.84236 -26.6851 99.0056
Normal: 0.0407271 0.99648 0.0732801
UV: 0.10185 0.167044

Position: -17.0632 -26.5485 97.1848
Normal: -0.00383628 0.995751 0.0920071
UV: 0.0320327 0.166726

Position: -23.8769 -29.127 115.317
Normal: -0.0136121 0.990648 0.135764
UV: 0.0672969 -0.00332153

Position: 36.1031 -68.523 -2.58088
Normal: 0.387383 -0.0425329 0.920937
UV: 0.48142 1

Position: 30.7416 -70.3171 -0.408514
Normal: 0.387382 -0.042533 0.920937
UV: 0.54381 1

Position: 25.8799 -54.8406 2.35132
Normal: 0.390077 -0.0525894 0.919279
UV: 0.551113 0.833333

Position: 32.8102 -52.5214 -0.456754
Normal: 0.390103 -0.0526901 0.919262
UV: 0.470464 0.833318

Position: 21.486 -39.3988 5.27854
Normal: 0.378037 -0.00878159 0.925749
UV: 0.554873 0.666667

Position: 29.2077 -36.8148 2.14986
Normal: 0.377988 -0.00860898 0.925771
UV: 0.465018 0.666667

Position: 16.6168 -23.4632 6.42258
Normal: 0.322798 0.164029 0.932146
UV: 0.554873 0.5

Position: 24.3385 -20.8792 3.29389
Normal: 0.322798 0.164029 0.932146
UV: 0.465018 0.5

Position: 8.67633 -4.03551 2.8708
Normal: 0.183031 0.487048 0.853981
UV: 0.554899 0.303792

Position: 16.398 -1.4515 -0.257892
Normal: 0.183831 0.485509 0.854685
UV: 0.465031 0.303718

Position: -5.51261 23.0229 -20.7702
Normal: 0.0703065 0.676977 0.732639
UV: 0.514349 0.0184689

Position: 45.9162 -74.7723 3.60031
Normal: -0.528833 -0.388667 0.754502
UV: 0.882444 1

Position: 36.8656 -70.4996 -0.542316
Normal: -0.528833 -0.388667 0.754502
UV: 0.961243 1

Position: 39.5822 -44.2055 14.9067
Normal: -0.499474 -0.255378 0.827833
UV: 0.977199 0.833333

Position: 51.7747 -49.9614 20.4874
Normal: -0.500101 -0.257804 0.826702
UV: 0.871046 0.833328

Position: 45.982 -20.9585 21.6252
Normal: -0.402148 0.0351976 0.914898
UV: 0.986314 0.666667

Position: 59.4956 -27.3381 27.8106
Normal: -0.402936 0.0332633 0.914623
UV: 0.868659 0.666667

Position: 55.7081 -0.965347 20.9968
Normal: -0.255233 0.337748 0.905971
UV: 0.986317 0.500032

Position: 69.2217 -7.34492 27.1822
Normal: -0.255233 0.337748 0.90597
UV: 0.868659 0.500001

Position: 67.0956 16.1848 13.8064
Normal: -0.0823885 0.59827 0.797048
UV: 0.986335 0.333419

Position: 80.6092 9.80526 19.9918
Normal: -0.0826689 0.59791 0.797289
UV: 0.868661 0.333337

Position: 95.4247 35.6885 -7.25188
Normal: 0.0214287 0.718965 0.694716
UV: 0.928744 0.0460692

Position: 43.2684 -73.9923 5.72519
Normal: -0.940941 0.0913776 0.326005
UV: 0.48142 1

Position: 41.6547 -69.796 -0.108376
Normal: -0.940942 0.0913776 0.326005
UV: 0.54381 1

Position: 46.7054 -52.7269 9.6848
Normal: -0.928396 0.127973 0.34886
UV: 0.551113 0.833333

Position: 48.7912 -58.1512 17.2254
Normal: -0.928264 0.128331 0.349081
UV: 0.470464 0.833318

Position: 53.5594 -35.9994 19.2613
Normal: -0.897444 0.200874 0.392739
UV: 0.554873 0.666667

Position: 55.8834 -42.0431 27.663
Normal: -0.897387 0.200992 0.392808
UV: 0.465018 0.666667

Position: 62.3875 -19.6381 28.5888
Normal: -0.854593 0.279661 0.437562
UV: 0.554873 0.5

Position: 64.7115 -25.6818 36.9905
Normal: -0.854593 0.279661 0.437562
UV: 0.465018 0.5

Position: 75.4147 -0.528881 38.7316
Normal: -0.790801 0.371808 0.486202
UV: 0.554899 0.303792

Position: 77.7387 -6.57258 47.1332
Normal: -0.791173 0.37133 0.485962
UV: 0.465031 0.303718

Position: 100.993 24.1746 55.4677
Normal: -0.746045 0.425352 0.51234
UV: 0.514349 0.0184689

Position: 26.2467 -73.6961 3.37295
Normal: 0.638981 -0.165695 0.751165
UV: 0.48142 1

Position: 20.7429 -76.6289 7.5551
Normal: 0.6489 -0.155702 0.744772
UV: 0.54381 1

Position: 14.056 -51.8839 18.5544
Normal: 0.578981 -0.108528 0.808086
UV: 0.551113 0.833333

Position: 21.3553 -48.0513 13.9092
Normal: 0.558274 -0.130403 0.819345
UV: 0.470464 0.833318

Position: 5.34647 -28.7716 24.8334
Normal: 0.372172 -0.0323579 0.927599
UV: 0.554873 0.666667

Position: 13.9923 -24.3861 21.7677
Normal: 0.32819 -0.0718487 0.941875
UV: 0.465018 0.666667

Position: -4.56587 -6.8659 26.108
Normal: 0.051729 0.0484844 0.997483
UV: 0.554873 0.5

Position: 4.74211 -2.3314 25.7655
Normal: -0.000967844 -0.00171396 0.999998
UV: 0.465018 0.5

Position: -17.1658 17.7126 20.9592
Normal: -0.303301 0.172524 0.937147
UV: 0.554899 0.303792

Position: -7.10122 22.4173 23.7281
Normal: -0.316321 0.123101 0.940631
UV: 0.465031 0.303718

Position: -29.9908 54.5698 1.72061
Normal: -0.386606 0.317448 0.865888
UV: 0.514349 0.0184689

Position: 30.7976 -66.8983 -1.12071
Normal: 0.937284 0.221416 -0.269208
UV: 0.0281561 1

Position: 33.9351 -72.7126 4.90781
Normal: 0.936135 0.224755 -0.270437
UV: 0.0932198 0.999999

Position: 35.5758 -55.7701 24.6678
Normal: 0.940622 0.240892 -0.239167
UV: 0.105262 0.833481

Position: 31.7182 -48.1871 17.071
Normal: 0.941976 0.235934 -0.238779
UV: 0.0218512 0.833349

Position: 35.2783 -40.0988 42.7113
Normal: 0.936181 0.330945 -0.118494
UV: 0.119878 0.666667

Position: 30.6461 -30.1868 33.5242
Normal: 0.93532 0.335036 -0.113695
UV: 0.0136621 0.666667

Position: 29.3351 -25.7948 59.2322
Normal: 0.885228 0.463111 0.0435913
UV: 0.119898 0.500113

Position: 24.538 -15.9077 50.8428
Normal: 0.873548 0.484321 0.0484387
UV: 0.0136644 0.500006

Position: 19.5955 -13.3964 74.5344
Normal: 0.787952 0.598069 0.146441
UV: 0.113596 0.333525

Position: 14.3317 -5.20972 68.0535
Normal: 0.756493 0.637853 0.144437
UV: 0.019208 0.33335

Position: 7.1818 -3.01782 88.3131
Normal: 0.617117 0.767724 0.172527
UV: 0.10185 0.167044

Position: 1.57981 1.92569 84.4278
Normal: 0.578367 0.795939 0.178809
UV: 0.0320327 0.166726

Position: -9.84423 5.66909 99.8331
Normal: 0.556476 0.801801 0.21783
UV: 0.0672969 -0.00332153

Position: 33.8187 -75.8102 6.33267
Normal: -0.711132 0.592423 -0.378585
UV: 0.172898 1.0001

Position: 39.9219 -71.79 1.15926
Normal: -0.711132 0.592423 -0.378585
UV: 0.238064 1.00033

Position: 45.0978 -55.505 16.9203
Normal: -0.688328 0.661287 -0.298168
UV: 0.250633 0.833333

Position: 36.6092 -61.0964 24.1157
Normal: -0.68842 0.661064 -0.298451
UV: 0.160032 0.8333

Position: 52.0225 -44.2537 32.9523
Normal: -0.606484 0.788419 -0.102823
UV: 0.254339 0.666725

Position: 43.0206 -50.1832 40.5827
Normal: -0.607033 0.787854 -0.10391
UV: 0.158259 0.666659

Position: 60.3002 -39.1516 46.6677
Normal: -0.390153 0.891013 0.232115
UV: 0.254403 0.500069

Position: 51.4696 -44.9683 54.1529
Normal: -0.393185 0.890672 0.228274
UV: 0.16015 0.499991

Position: 69.291 -41.4751 55.6857
Normal: 0.081408 0.738184 0.66967
UV: 0.253505 0.333465

Position: 60.9729 -46.9542 62.7365
Normal: 0.0766298 0.741475 0.66659
UV: 0.164711 0.333339

Position: 77.1626 -53.2858 58.6363
Normal: 0.52472 0.250404 0.813614
UV: 0.241651 0.166974

Position: 71.1606 -57.2393 63.7239
Normal: 0.52313 0.253073 0.813812
UV: 0.177515 0.166717

Position: 82.6646 -77.4632 53.4116
Normal: 0.652373 -0.0152895 0.757744
UV: 0.211938 -0.00653887

Position: 31.0246 -77.6618 6.78099
Normal: -0.959882 0.253943 -0.118911
UV: 0.172898 1.0001

Position: 32.6662 -72.5188 3.52615
Normal: -0.964556 0.243447 -0.101809
UV: 0.238064 1.00033

Position: 35.4663 -53.3048 22.9422
Normal: -0.935169 0.348459 -0.0635202
UV: 0.250633 0.833333

Position: 32.5354 -60.3819 26.4333
Normal: -0.931621 0.34592 -0.111458
UV: 0.160032 0.8333

Position: 40.9816 -41.0422 43.1056
Normal: -0.861599 0.506541 0.0326222
UV: 0.254339 0.666725

Position: 48.6473 -33.9767 63.6065
Normal: -0.732254 0.672707 0.106155
UV: 0.254403 0.500069

Position: 43.9069 -39.3768 66.5359
Normal: -0.717151 0.693285 0.0710649
UV: 0.16015 0.499991

Position: 37.0281 -47.7451 46.254
Normal: -0.854631 0.519075 -0.0129315
UV: 0.158259 0.666659

Position: 57.9043 -30.5372 84.3144
Normal: -0.56357 0.813842 0.141599
UV: 0.253505 0.333465

Position: 52.7113 -34.4519 87.1442
Normal: -0.545883 0.829323 0.119312
UV: 0.164711 0.333339

Position: 67.4669 -29.7 105.551
Normal: -0.411193 0.899902 0.145246
UV: 0.241651 0.166974

Position: 63.3389 -31.8489 107.701
Normal: -0.401153 0.905962 0.135316
UV: 0.177515 0.166717

Position: 76.5991 -30.1863 128.351
Normal: -0.382609 0.907644 0.172607
UV: 0.211938 -0.00653887

Position: 20.6572 -80.0517 13.6255
Normal: -0.0893079 0.840806 -0.53392
UV: 0.48142 1

Position: 26.5028 -78.8074 14.6073
Normal: -0.0893078 0.840806 -0.53392
UV: 0.54381 1

Position: 23.1429 -70.428 28.365
Normal: -0.0867099 0.835479 -0.542638
UV: 0.551113 0.833333

Position: 15.5867 -72.0365 27.0959
Normal: -0.0866838 0.835425 -0.542725
UV: 0.470464 0.833318

Position: 19.4525 -61.9002 41.7806
Normal: -0.0979465 0.857982 -0.504255
UV: 0.554873 0.666667

Position: 11.0336 -63.6923 40.3666
Normal: -0.0979902 0.858067 -0.504101
UV: 0.465018 0.666667

Position: 15.4956 -54.8394 56.3906
Normal: -0.140206 0.92896 -0.342601
UV: 0.554873 0.5

Position: 7.07669 -56.6316 54.9766
Normal: -0.140206 0.92896 -0.342601
UV: 0.465018 0.5

Position: 11.2063 -50.8335 76.8517
Normal: -0.209459 0.977786 0.00783568
UV: 0.554899 0.303792

Position: 2.78733 -52.6257 75.4376
Normal: -0.209165 0.977862 0.00598862
UV: 0.465031 0.303718

Position: 3.58296 -62.5806 112.855
Normal: -0.24203 0.936361 0.254263
UV: 0.514349 0.0184689

Position: 20.7691 -81.5667 11.0314
Normal: 0.878222 0.45719 0.140364
UV: 0.172898 1.0001

Position: 20.7989 -83.803 18.1294
Normal: 0.878223 0.45719 0.140365
UV: 0.238064 1.00033

Position: 11.5903 -68.1079 24.6233
Normal: 0.821355 0.545031 0.168278
UV: 0.250633 0.833333

Position: 11.549 -64.9976 14.751
Normal: 0.821567 0.54474 0.168185
UV: 0.160032 0.8333

Position: 0.359134 -55.7483 29.0075
Normal: 0.65647 0.720271 0.224179
UV: 0.254339 0.666725

Position: 0.315298 -52.45 18.5384
Normal: 0.657482 0.719431 0.22391
UV: 0.158259 0.666659

Position: -11.3868 -48.5454 31.3335
Normal: 0.296911 0.911128 0.285815
UV: 0.254403 0.500069

Position: -11.4298 -45.3098 21.0636
Normal: 0.301592 0.909733 0.285356
UV: 0.16015 0.499991

Position: -22.1407 -48.2309 31.3685
Normal: -0.363863 0.887965 0.281284
UV: 0.253505 0.333465

Position: -22.1812 -45.183 21.6946
Normal: -0.357738 0.890233 0.281973
UV: 0.164711 0.333339

Position: -30.4016 -56.0995 27.4931
Normal: -0.872632 0.464748 0.150076
UV: 0.241651 0.166974

Position: -30.4308 -53.9003 20.5128
Normal: -0.871108 0.467338 0.150886
UV: 0.177515 0.166717

Position: -34.729 -74.4772 18.1604
Normal: -0.978218 0.196777 0.0660919
UV: 0.211938 -0.00653887

Position: 40.2416 -70.4904 -1.49757
Normal: 0.446908 -0.733539 0.512049
UV: 0.762143 1

Position: 35.6348 -71.1145 1.62908
Normal: 0.446908 -0.733539 0.512049
UV: 0.834121 1

Position: 38.8432 -55.223 21.5943
Normal: 0.529934 -0.507349 0.679534
UV: 0.848016 0.833333

Position: 45.0605 -54.3807 17.3747
Normal: 0.519889 -0.54591 0.657036
UV: 0.750877 0.833333

Position: 40.1373 -31.725 29.4784
Normal: 0.569011 -0.177081 0.803037
UV: 0.848016 0.666667

Position: 46.3546 -30.8827 25.2587
Normal: 0.569058 -0.171042 0.804312
UV: 0.750877 0.666667

Position: 40.8941 -5.30212 30.7213
Normal: 0.555496 0.05592 0.829637
UV: 0.848015 0.464828

Position: 47.1113 -4.4598 26.5017
Normal: 0.552243 0.0806272 0.829775
UV: 0.750877 0.464831

Position: 40.056 24.1941 24.4214
Normal: 0.520813 0.247957 0.816867
UV: 0.848009 0.236034

Position: 46.2732 25.0364 20.2017
Normal: 0.516462 0.26579 0.814016
UV: 0.750877 0.23608

Position: 39.662 56.1764 11.6603
Normal: 0.500199 0.326209 0.802115
UV: 0.803588 -0.00517583

Position: 27.1075 -70.8592 -0.128483
Normal: -0.0208207 0.787575 -0.615867
UV: 0.614947 1

Position: 38.5499 -70.3004 0.199291
Normal: -0.0208205 0.787575 -0.615867
UV: 0.698319 1

Position: 39.3061 -53.4185 21.7624
Normal: -0.0303066 0.888796 -0.4573
UV: 0.714286 0.833333

Position: 24.0959 -54.1614 21.3267
Normal: -0.0302404 0.888163 -0.458533
UV: 0.60346 0.833333

Position: 38.3454 -46.7091 43.8606
Normal: -0.0461955 0.995368 -0.0843169
UV: 0.714286 0.666667

Position: 37.9055 -49.2578 63.5639
Normal: -0.055984 0.922893 0.380965
UV: 0.714286 0.5

Position: 22.6953 -50.0006 63.1282
Normal: -0.0559838 0.922893 0.380965
UV: 0.60346 0.5

Position: 23.1352 -47.452 43.4249
Normal: -0.0461954 0.995368 -0.084317
UV: 0.60346 0.666667

Position: 38.0326 -60.2571 77.8791
Normal: -0.0515585 0.578094 0.81434
UV: 0.714286 0.333333

Position: 22.8224 -61 77.4434
Normal: -0.0515584 0.578088 0.814344
UV: 0.60346 0.333333

Position: 37.5204 -78.961 83.7773
Normal: -0.03183 0.0668257 0.997257
UV: 0.705181 0.166738

Position: 24.8143 -79.5815 83.4133
Normal: -0.0320785 0.0721325 0.996879
UV: 0.612578 0.166667

Position: 33.4085 -105.863 77.6803
Normal: -0.0172789 -0.218482 0.975688
UV: 0.664472 -0.00662351

Position: 31.534 -76.0113 8.77078
Normal: -0.520859 0.704755 -0.481691
UV: 0.48142 1

Position: 38.7887 -72.3432 6.03777
Normal: -0.532908 0.702373 -0.47189
UV: 0.54381 1

Position: 40.6012 -58.8391 24.0907
Normal: -0.488956 0.766626 -0.41618
UV: 0.551113 0.833333

Position: 31.1418 -62.9567 27.4693
Normal: -0.464928 0.767863 -0.440713
UV: 0.470464 0.833318

Position: 44.2225 -49.3115 42.0854
Normal: -0.352992 0.884051 -0.306351
UV: 0.554873 0.666667

Position: 33.456 -52.1688 45.4222
Normal: -0.307363 0.88384 -0.352639
UV: 0.465018 0.666667

Position: 48.6295 -44.0244 60.3453
Normal: -0.131318 0.978245 -0.160599
UV: 0.554873 0.5

Position: 37.5702 -44.6484 63.1302
Normal: -0.0727922 0.974417 -0.212631
UV: 0.465018 0.5

Position: 54.0534 -43.4489 82.4428
Normal: 0.142188 0.988014 0.0600964
UV: 0.554899 0.303792

Position: 42.6595 -41.521 84.5971
Normal: 0.171562 0.984828 0.0260837
UV: 0.465031 0.303718

Position: 53.9777 -52.8857 117.536
Normal: 0.207909 0.94448 0.254424
UV: 0.514349 0.0184689

Position: 21.1624 -78.086 8.82785
Normal: 0.451649 0.848636 -0.275372
UV: 0.48142 1

Position: 26.7201 -78.9974 15.1346
Normal: 0.451649 0.848636 -0.275372
UV: 0.54381 1

Position: 15.8776 -68.4127 29.9709
Normal: 0.423257 0.871685 -0.247021
UV: 0.551113 0.833333

Position: 8.69354 -67.2347 21.8185
Normal: 0.42606 0.869524 -0.249804
UV: 0.470464 0.833318

Position: 4.29937 -59.521 44.8005
Normal: 0.364744 0.91158 -0.189694
UV: 0.554873 0.666667

Position: -3.70498 -58.2085 35.7173
Normal: 0.36875 0.909149 -0.193575
UV: 0.465018 0.666667

Position: -8.07455 -52.4872 59.6353
Normal: 0.292195 0.948751 -0.120389
UV: 0.554873 0.5

Position: -16.0789 -51.1746 50.5521
Normal: 0.297921 0.946266 -0.125794
UV: 0.465018 0.5

Position: -23.2926 -46.8849 77.6459
Normal: 0.192361 0.980932 -0.0277625
UV: 0.554899 0.303792

Position: -31.297 -45.5723 68.5627
Normal: 0.203006 0.978459 -0.0375003
UV: 0.465031 0.303718

Position: -50.3912 -43.8592 100.87
Normal: 0.132932 0.990783 0.026031
UV: 0.514349 0.0184689

Position: 25.0247 -79.6122 9.04034
Normal: 0.912214 -0.192195 0.361838
UV: 0.0281561 1

Position: 22.7294 -82.8167 13.1622
Normal: 0.913088 -0.189874 0.360859
UV: 0.0932198 0.999999

Position: 19.2116 -68.8351 29.4199
Normal: 0.884339 -0.0650957 0.462284
UV: 0.105262 0.833481

Position: 22.1887 -64.6028 24.3333
Normal: 0.891662 -0.102337 0.440984
UV: 0.0218512 0.833349

Position: 11.5418 -58.5191 41.2365
Normal: 0.766019 0.16154 0.622189
UV: 0.119878 0.666667

Position: 15.2569 -52.8959 35.2364
Normal: 0.791138 0.12156 0.599436
UV: 0.0136621 0.666667

Position: 1.50376 -50.4296 48.3535
Normal: 0.574262 0.398162 0.715325
UV: 0.119898 0.500113

Position: 4.70501 -44.867 42.6513
Normal: 0.60369 0.392246 0.694047
UV: 0.0136644 0.500006

Position: -10.1528 -44.4973 52.0375
Normal: 0.350261 0.652723 0.671766
UV: 0.113596 0.333525

Position: -8.43461 -40.1965 46.7135
Normal: 0.347829 0.694919 0.629367
UV: 0.019208 0.33335

Position: -22.6857 -40.5341 52.8433
Normal: 0.1093 0.894396 0.433717
UV: 0.10185 0.167044

Position: -22.9492 -38.504 48.064
Normal: 0.078678 0.919107 0.386074
UV: 0.0320327 0.166726

Position: -36.6906 -38.7685 49.1879
Normal: 0.0141971 0.920595 0.390261
UV: 0.0672969 -0.00332153

Position: 21.9238 -79.8609 11.6018
Normal: 0.108335 0.779239 -0.617292
UV: 0.48142 1

Position: 27.5227 -79.6801 12.8126
Normal: 0.108335 0.779239 -0.617292
UV: 0.54381 1

Position: 26.6372 -64.873 31.349
Normal: 0.101286 0.802381 -0.588154
UV: 0.551113 0.833333

Position: 19.3999 -65.1067 29.7838
Normal: 0.102338 0.799029 -0.59252
UV: 0.470464 0.833318

Position: 25.819 -51.475 50.7182
Normal: 0.0872072 0.843963 -0.529265
UV: 0.554873 0.666667

Position: 17.7554 -51.7354 48.9744
Normal: 0.0886842 0.839876 -0.535485
UV: 0.465018 0.666667

Position: 25.0856 -39.6216 71.0031
Normal: 0.0702645 0.886543 -0.457278
UV: 0.554873 0.5

Position: 17.022 -39.8819 69.2592
Normal: 0.0724058 0.881585 -0.466439
UV: 0.465018 0.5

Position: 24.8138 -27.8118 96.2776
Normal: 0.0469869 0.933078 -0.356592
UV: 0.554899 0.303792

Position: 16.7501 -28.0722 94.5337
Normal: 0.0509234 0.926128 -0.373757
UV: 0.465031 0.303718

Position: 22.0414 -15.3443 135.167
Normal: 0.0347412 0.952404 -0.302853
UV: 0.514349 0.0184689


[INDEX_DATA]
0 2 1
2 0 3
3 4 2
4 3 5
5 6 4
6 5 7
7 8 6
8 7 9
9 10 8
10 9 11
11 12 10
13 15 14
16 15 13
16 17 15
16 18 17
18 19 17
19 18 20
20 21 19
21 20 22
22 23 21
23 22 24
24 25 23
26 28 27
28 26 29
29 30 28
30 29 31
31 32 30
32 31 33
33 34 32
34 33 35
35 36 34
37 39 38
40 39 37
40 41 39
40 42 41
42 43 41
43 42 44
44 45 43
45 44 46
46 47 45
47 46 48
48 49 47
50 52 51
53 52 50
53 54 52
53 55 54
55 56 54
56 55 57
57 58 56
58 57 59
59 60 58
60 59 61
61 62 60
63 65 64
65 63 66
66 67 65
67 66 68
68 69 67
69 68 70
70 71 69
71 70 72
72 73 71
74 76 75
77 76 74
77 78 76
77 79 78
79 80 78
80 79 81
81 82 80
82 81 83
83 84 82
85 87 86
87 85 88
88 89 87
89 88 90
90 91 89
91 90 92
92 93 91
93 92 94
94 95 93
96 98 97
98 96 99
99 100 98
100 99 101
101 102 100
102 101 103
103 104 102
104 103 105
105 106 104
107 109 108
110 109 107
110 111 109
110 112 111
112 113 111
113 112 114
114 115 113
115 114 116
116 117 115
117 116 118
118 119 117
120 122 121
122 120 123
123 124 122
124 123 125
125 126 124
126 125 127
127 128 126
128 127 129
129 130 128
130 129 131
131 132 130
133 135 134
136 135 133
136 137 135
138 140 139
137 140 138
136 140 137
139 141 138
141 139 142
142 143 141
143 142 144
144 145 143
146 148 147
148 146 149
149 150 148
150 149 151
151 152 150
152 151 153
153 154 152
154 153 155
155 156 154
157 159 158
159 157 160
160 161 159
161 160 162
162 163 161
163 162 164
164 165 163
165 164 166
166 167 165
167 166 168
168 169 167
170 172 171
172 170 173
173 174 172
174 173 175
175 176 174
176 175 177
177 178 176
178 177 179
179 180 178
181 183 182
184 183 181
184 185 183
186 188 187
185 188 186
184 188 185
187 189 186
189 187 190
190 191 189
191 190 192
192 193 191
194 196 195
196 194 197
197 198 196
198 197 199
199 200 198
200 199 201
201 202 200
202 201 203
203 204 202
205 207 206
207 205 208
208 209 207
209 208 210
210 211 209
211 210 212
212 213 211
213 212 214
214 215 213
216 218 217
219 218 216
219 220 218
219 221 220
221 222 220
222 221 223
223 224 222
224 223 225
225 226 224
226 225 227
227 228 226
229 231 230
231 229 232
232 233 231
233 232 234
234 235 233
235 234 236
236 237 235
237 236 238
238 239 237

