ObjectType Number Pos_x Pos_y Pos_z Rotation_x Rotation_y Rotation_z Scale_x Scale_y Scale_z
8 0 1282.9 8 11.2 0 0 0 38.23759 38.23759 38.23759
8 1 1165.4 8 11.2 0 0 0 38.23759 38.23759 38.23759
8 2 1167.3 17 2543.8 0 0 0 38.23759 38.23759 38.23759
8 3 1282.8 17 2543.8 0 0 0 38.23759 38.23759 38.23759